{"failedCount":0,"prefixedPath":"src\/test\/java\/tests\/ConfigDemo.feature","packageQualifiedName":"src.test.java.tests.ConfigDemo","loopIndex":-1,"relativePath":"src\/test\/java\/tests\/ConfigDemo.feature","scenarioResults":[{"sectionIndex":0,"stepResults":[{"result":{"nanos":771625,"millis":0.771625,"status":"passed"},"step":{"background":true,"line":3,"prefix":"*","index":0,"text":"url baseURL"},"stepLog":"16:19:35.244 Env is  null \n"},{"result":{"nanos":1421625,"millis":1.421625,"status":"passed"},"step":{"background":true,"line":4,"prefix":"*","index":1,"text":"header Accept = 'application\/json'"}},{"result":{"nanos":1275500,"millis":1.2755,"status":"passed"},"step":{"line":7,"prefix":"Given","index":0,"text":"print name"},"stepLog":"16:19:35.267 [print] test123 \n"}],"executorName":"main","line":6,"name":"Config Demo","description":"","durationMillis":3.46875,"startTime":1689236375157,"failed":false,"refId":"[1:6]","endTime":1689236375267,"exampleIndex":-1},{"sectionIndex":1,"stepResults":[{"result":{"nanos":89292,"millis":0.089292,"status":"passed"},"step":{"background":true,"line":3,"prefix":"*","index":0,"text":"url baseURL"},"stepLog":"16:19:35.271 Env is  null \n"},{"result":{"nanos":157625,"millis":0.157625,"status":"passed"},"step":{"background":true,"line":4,"prefix":"*","index":1,"text":"header Accept = 'application\/json'"}},{"result":{"nanos":307666,"millis":0.307666,"status":"passed"},"step":{"line":11,"prefix":"Given","index":0,"text":"path '\/users?page=2'"}},{"result":{"nanos":980011959,"millis":980.011959,"status":"passed"},"step":{"line":12,"prefix":"When","index":1,"text":"method GET"},"stepLog":"16:19:35.428 request:\n1 > GET https:\/\/reqres.in\/api\/users%3Fpage=2\n1 > Accept: application\/json\n1 > Host: reqres.in\n1 > Connection: Keep-Alive\n1 > User-Agent: Apache-HttpClient\/4.5.14 (Java\/19.0.1)\n1 > Accept-Encoding: gzip,deflate\n\n\n16:19:36.239 response time in milliseconds: 808\n1 < 200\n1 < Date: Thu, 13 Jul 2023 08:19:36 GMT\n1 < Content-Type: application\/json; charset=utf-8\n1 < Transfer-Encoding: chunked\n1 < Connection: keep-alive\n1 < X-Powered-By: Express\n1 < Access-Control-Allow-Origin: *\n1 < Etag: W\/\"2c1-N6Rqerxquq2kgQhL51EiSg4x0R8\"\n1 < Via: 1.1 vegur\n1 < Cache-Control: max-age=14400\n1 < CF-Cache-Status: HIT\n1 < Age: 116\n1 < Report-To: {\"endpoints\":[{\"url\":\"https:\\\/\\\/a.nel.cloudflare.com\\\/report\\\/v3?s=ZKB%2F9fP%2BsuPJWKlzXeVf%2Bub0IcSZA769oWVwipgx04GO3S6vaCTSttIILxUdA1MKQ1wwJPZomSJhGX46AWMnW8gEDXpLY%2BSFK7BdisA%2FVFLerbRn4m5y49VuuA%3D%3D\"}],\"group\":\"cf-nel\",\"max_age\":604800}\n1 < NEL: {\"success_fraction\":0,\"report_to\":\"cf-nel\",\"max_age\":604800}\n1 < Vary: Accept-Encoding\n1 < Server: cloudflare\n1 < CF-RAY: 7e601a17cf6a20ea-HKG\n{\"page\":1,\"per_page\":6,\"total\":12,\"total_pages\":2,\"data\":[{\"id\":1,\"name\":\"cerulean\",\"year\":2000,\"color\":\"#98B2D1\",\"pantone_value\":\"15-4020\"},{\"id\":2,\"name\":\"fuchsia rose\",\"year\":2001,\"color\":\"#C74375\",\"pantone_value\":\"17-2031\"},{\"id\":3,\"name\":\"true red\",\"year\":2002,\"color\":\"#BF1932\",\"pantone_value\":\"19-1664\"},{\"id\":4,\"name\":\"aqua sky\",\"year\":2003,\"color\":\"#7BC4C4\",\"pantone_value\":\"14-4811\"},{\"id\":5,\"name\":\"tigerlily\",\"year\":2004,\"color\":\"#E2583E\",\"pantone_value\":\"17-1456\"},{\"id\":6,\"name\":\"blue turquoise\",\"year\":2005,\"color\":\"#53B0AE\",\"pantone_value\":\"15-5217\"}],\"support\":{\"url\":\"https:\/\/reqres.in\/#support-heading\",\"text\":\"To keep ReqRes free, contributions towards server costs are appreciated!\"}}\n\n"},{"result":{"nanos":1399542,"millis":1.399542,"status":"passed"},"step":{"line":13,"prefix":"Then","index":2,"text":"status 200"}},{"result":{"nanos":5677959,"millis":5.677959,"status":"passed"},"step":{"line":14,"prefix":"And","index":3,"text":"print response"},"stepLog":"16:19:36.260 [print] {\n  \"page\": 1,\n  \"per_page\": 6,\n  \"total\": 12,\n  \"total_pages\": 2,\n  \"data\": [\n    {\n      \"id\": 1,\n      \"name\": \"cerulean\",\n      \"year\": 2000,\n      \"color\": \"#98B2D1\",\n      \"pantone_value\": \"15-4020\"\n    },\n    {\n      \"id\": 2,\n      \"name\": \"fuchsia rose\",\n      \"year\": 2001,\n      \"color\": \"#C74375\",\n      \"pantone_value\": \"17-2031\"\n    },\n    {\n      \"id\": 3,\n      \"name\": \"true red\",\n      \"year\": 2002,\n      \"color\": \"#BF1932\",\n      \"pantone_value\": \"19-1664\"\n    },\n    {\n      \"id\": 4,\n      \"name\": \"aqua sky\",\n      \"year\": 2003,\n      \"color\": \"#7BC4C4\",\n      \"pantone_value\": \"14-4811\"\n    },\n    {\n      \"id\": 5,\n      \"name\": \"tigerlily\",\n      \"year\": 2004,\n      \"color\": \"#E2583E\",\n      \"pantone_value\": \"17-1456\"\n    },\n    {\n      \"id\": 6,\n      \"name\": \"blue turquoise\",\n      \"year\": 2005,\n      \"color\": \"#53B0AE\",\n      \"pantone_value\": \"15-5217\"\n    }\n  ],\n  \"support\": {\n    \"url\": \"https:\/\/reqres.in\/#support-heading\",\n    \"text\": \"To keep ReqRes free, contributions towards server costs are appreciated!\"\n  }\n}\n \n"},{"result":{"nanos":793292,"millis":0.793292,"status":"passed"},"step":{"line":15,"prefix":"And","index":4,"text":"print responseStatus"},"stepLog":"16:19:36.261 [print] 200 \n"},{"result":{"nanos":540042,"millis":0.540042,"status":"passed"},"step":{"line":16,"prefix":"And","index":5,"text":"print responseTime"},"stepLog":"16:19:36.261 [print] 808 \n"},{"result":{"nanos":868583,"millis":0.868583,"status":"passed"},"step":{"line":17,"prefix":"And","index":6,"text":"print responseHeaders"},"stepLog":"16:19:36.262 [print] {\n  \"Date\": [\n    \"Thu, 13 Jul 2023 08:19:36 GMT\"\n  ],\n  \"Content-Type\": [\n    \"application\/json; charset=utf-8\"\n  ],\n  \"Transfer-Encoding\": [\n    \"chunked\"\n  ],\n  \"Connection\": [\n    \"keep-alive\"\n  ],\n  \"X-Powered-By\": [\n    \"Express\"\n  ],\n  \"Access-Control-Allow-Origin\": [\n    \"*\"\n  ],\n  \"Etag\": [\n    \"W\/\\\"2c1-N6Rqerxquq2kgQhL51EiSg4x0R8\\\"\"\n  ],\n  \"Via\": [\n    \"1.1 vegur\"\n  ],\n  \"Cache-Control\": [\n    \"max-age=14400\"\n  ],\n  \"CF-Cache-Status\": [\n    \"HIT\"\n  ],\n  \"Age\": [\n    \"116\"\n  ],\n  \"Report-To\": [\n    \"{\\\"endpoints\\\":[{\\\"url\\\":\\\"https:\\\\\/\\\\\/a.nel.cloudflare.com\\\\\/report\\\\\/v3?s=ZKB%2F9fP%2BsuPJWKlzXeVf%2Bub0IcSZA769oWVwipgx04GO3S6vaCTSttIILxUdA1MKQ1wwJPZomSJhGX46AWMnW8gEDXpLY%2BSFK7BdisA%2FVFLerbRn4m5y49VuuA%3D%3D\\\"}],\\\"group\\\":\\\"cf-nel\\\",\\\"max_age\\\":604800}\"\n  ],\n  \"NEL\": [\n    \"{\\\"success_fraction\\\":0,\\\"report_to\\\":\\\"cf-nel\\\",\\\"max_age\\\":604800}\"\n  ],\n  \"Vary\": [\n    \"Accept-Encoding\"\n  ],\n  \"Server\": [\n    \"cloudflare\"\n  ],\n  \"CF-RAY\": [\n    \"7e601a17cf6a20ea-HKG\"\n  ],\n  \"Set-Cookie\": [\n  ]\n}\n \n"},{"result":{"nanos":591500,"millis":0.5915,"status":"passed"},"step":{"line":18,"prefix":"And","index":7,"text":"print responseCookies"},"stepLog":"16:19:36.263 [print] {\n}\n \n"}],"executorName":"main","line":10,"name":"Get Demo 1","description":"","durationMillis":990.43746,"startTime":1689236375271,"failed":false,"refId":"[2:10]","endTime":1689236376263,"exampleIndex":-1}],"callDepth":0,"name":"Config Demo","description":"","resultDate":"2023-07-13 04:19:36 pm","durationMillis":993.90621,"passedCount":2}