{"failedCount":0,"prefixedPath":"classpath:tests\/ConfigDemo.feature","packageQualifiedName":"tests.ConfigDemo","loopIndex":-1,"relativePath":"tests\/ConfigDemo.feature","scenarioResults":[{"sectionIndex":0,"stepResults":[{"result":{"nanos":491209,"millis":0.491209,"status":"passed"},"step":{"background":true,"line":3,"prefix":"*","index":0,"text":"url baseURL"},"stepLog":"17:05:04.861 Env is  null \n"},{"result":{"nanos":978333,"millis":0.978333,"status":"passed"},"step":{"background":true,"line":4,"prefix":"*","index":1,"text":"header Accept = 'application\/json'"}},{"result":{"nanos":1430084,"millis":1.430084,"status":"passed"},"step":{"line":7,"prefix":"Given","index":0,"text":"print name"},"stepLog":"17:05:04.884 [print] test123 \n"}],"executorName":"main","line":6,"name":"Config Demo","description":"","durationMillis":2.899626,"startTime":1689239104773,"failed":false,"refId":"[1:6]","endTime":1689239104884,"exampleIndex":-1},{"sectionIndex":1,"stepResults":[{"result":{"nanos":153209,"millis":0.153209,"status":"passed"},"step":{"background":true,"line":3,"prefix":"*","index":0,"text":"url baseURL"},"stepLog":"17:05:04.893 Env is  null \n"},{"result":{"nanos":184375,"millis":0.184375,"status":"passed"},"step":{"background":true,"line":4,"prefix":"*","index":1,"text":"header Accept = 'application\/json'"}},{"result":{"nanos":390333,"millis":0.390333,"status":"passed"},"step":{"line":11,"prefix":"Given","index":0,"text":"path '\/users?page=2'"}},{"result":{"nanos":751368583,"millis":751.368583,"status":"passed"},"step":{"line":12,"prefix":"When","index":1,"text":"method GET"},"stepLog":"17:05:05.059 request:\n1 > GET https:\/\/reqres.in\/api\/users%3Fpage=2\n1 > Accept: application\/json\n1 > Host: reqres.in\n1 > Connection: Keep-Alive\n1 > User-Agent: Apache-HttpClient\/4.5.14 (Java\/19.0.1)\n1 > Accept-Encoding: gzip,deflate\n\n\n17:05:05.632 response time in milliseconds: 570\n1 < 200\n1 < Date: Thu, 13 Jul 2023 09:05:05 GMT\n1 < Content-Type: application\/json; charset=utf-8\n1 < Transfer-Encoding: chunked\n1 < Connection: keep-alive\n1 < X-Powered-By: Express\n1 < Access-Control-Allow-Origin: *\n1 < Etag: W\/\"2c1-N6Rqerxquq2kgQhL51EiSg4x0R8\"\n1 < Via: 1.1 vegur\n1 < Cache-Control: max-age=14400\n1 < CF-Cache-Status: HIT\n1 < Age: 3374\n1 < Report-To: {\"endpoints\":[{\"url\":\"https:\\\/\\\/a.nel.cloudflare.com\\\/report\\\/v3?s=%2BTJnQfigul9FEuEcPUG6CuUJLz2Xm7YBO5WcSSZ9kHZkUkPvHT%2BDyaCm3XUby%2FBG4ktc4S%2BZbzZE8%2FQxkTZUJKB%2Fi95l3DTbig%2B%2Fdv9oIiXJ9cEA2zhtqdk35w%3D%3D\"}],\"group\":\"cf-nel\",\"max_age\":604800}\n1 < NEL: {\"success_fraction\":0,\"report_to\":\"cf-nel\",\"max_age\":604800}\n1 < Vary: Accept-Encoding\n1 < Server: cloudflare\n1 < CF-RAY: 7e605cba28e204cc-HKG\n{\"page\":1,\"per_page\":6,\"total\":12,\"total_pages\":2,\"data\":[{\"id\":1,\"name\":\"cerulean\",\"year\":2000,\"color\":\"#98B2D1\",\"pantone_value\":\"15-4020\"},{\"id\":2,\"name\":\"fuchsia rose\",\"year\":2001,\"color\":\"#C74375\",\"pantone_value\":\"17-2031\"},{\"id\":3,\"name\":\"true red\",\"year\":2002,\"color\":\"#BF1932\",\"pantone_value\":\"19-1664\"},{\"id\":4,\"name\":\"aqua sky\",\"year\":2003,\"color\":\"#7BC4C4\",\"pantone_value\":\"14-4811\"},{\"id\":5,\"name\":\"tigerlily\",\"year\":2004,\"color\":\"#E2583E\",\"pantone_value\":\"17-1456\"},{\"id\":6,\"name\":\"blue turquoise\",\"year\":2005,\"color\":\"#53B0AE\",\"pantone_value\":\"15-5217\"}],\"support\":{\"url\":\"https:\/\/reqres.in\/#support-heading\",\"text\":\"To keep ReqRes free, contributions towards server costs are appreciated!\"}}\n\n"},{"result":{"nanos":1832250,"millis":1.83225,"status":"passed"},"step":{"line":13,"prefix":"Then","index":2,"text":"status 200"}},{"result":{"nanos":5544875,"millis":5.544875,"status":"passed"},"step":{"line":14,"prefix":"And","index":3,"text":"print response"},"stepLog":"17:05:05.653 [print] {\n  \"page\": 1,\n  \"per_page\": 6,\n  \"total\": 12,\n  \"total_pages\": 2,\n  \"data\": [\n    {\n      \"id\": 1,\n      \"name\": \"cerulean\",\n      \"year\": 2000,\n      \"color\": \"#98B2D1\",\n      \"pantone_value\": \"15-4020\"\n    },\n    {\n      \"id\": 2,\n      \"name\": \"fuchsia rose\",\n      \"year\": 2001,\n      \"color\": \"#C74375\",\n      \"pantone_value\": \"17-2031\"\n    },\n    {\n      \"id\": 3,\n      \"name\": \"true red\",\n      \"year\": 2002,\n      \"color\": \"#BF1932\",\n      \"pantone_value\": \"19-1664\"\n    },\n    {\n      \"id\": 4,\n      \"name\": \"aqua sky\",\n      \"year\": 2003,\n      \"color\": \"#7BC4C4\",\n      \"pantone_value\": \"14-4811\"\n    },\n    {\n      \"id\": 5,\n      \"name\": \"tigerlily\",\n      \"year\": 2004,\n      \"color\": \"#E2583E\",\n      \"pantone_value\": \"17-1456\"\n    },\n    {\n      \"id\": 6,\n      \"name\": \"blue turquoise\",\n      \"year\": 2005,\n      \"color\": \"#53B0AE\",\n      \"pantone_value\": \"15-5217\"\n    }\n  ],\n  \"support\": {\n    \"url\": \"https:\/\/reqres.in\/#support-heading\",\n    \"text\": \"To keep ReqRes free, contributions towards server costs are appreciated!\"\n  }\n}\n \n"},{"result":{"nanos":830708,"millis":0.830708,"status":"passed"},"step":{"line":15,"prefix":"And","index":4,"text":"print responseStatus"},"stepLog":"17:05:05.654 [print] 200 \n"},{"result":{"nanos":647542,"millis":0.647542,"status":"passed"},"step":{"line":16,"prefix":"And","index":5,"text":"print responseTime"},"stepLog":"17:05:05.655 [print] 570 \n"},{"result":{"nanos":961792,"millis":0.961792,"status":"passed"},"step":{"line":17,"prefix":"And","index":6,"text":"print responseHeaders"},"stepLog":"17:05:05.656 [print] {\n  \"Date\": [\n    \"Thu, 13 Jul 2023 09:05:05 GMT\"\n  ],\n  \"Content-Type\": [\n    \"application\/json; charset=utf-8\"\n  ],\n  \"Transfer-Encoding\": [\n    \"chunked\"\n  ],\n  \"Connection\": [\n    \"keep-alive\"\n  ],\n  \"X-Powered-By\": [\n    \"Express\"\n  ],\n  \"Access-Control-Allow-Origin\": [\n    \"*\"\n  ],\n  \"Etag\": [\n    \"W\/\\\"2c1-N6Rqerxquq2kgQhL51EiSg4x0R8\\\"\"\n  ],\n  \"Via\": [\n    \"1.1 vegur\"\n  ],\n  \"Cache-Control\": [\n    \"max-age=14400\"\n  ],\n  \"CF-Cache-Status\": [\n    \"HIT\"\n  ],\n  \"Age\": [\n    \"3374\"\n  ],\n  \"Report-To\": [\n    \"{\\\"endpoints\\\":[{\\\"url\\\":\\\"https:\\\\\/\\\\\/a.nel.cloudflare.com\\\\\/report\\\\\/v3?s=%2BTJnQfigul9FEuEcPUG6CuUJLz2Xm7YBO5WcSSZ9kHZkUkPvHT%2BDyaCm3XUby%2FBG4ktc4S%2BZbzZE8%2FQxkTZUJKB%2Fi95l3DTbig%2B%2Fdv9oIiXJ9cEA2zhtqdk35w%3D%3D\\\"}],\\\"group\\\":\\\"cf-nel\\\",\\\"max_age\\\":604800}\"\n  ],\n  \"NEL\": [\n    \"{\\\"success_fraction\\\":0,\\\"report_to\\\":\\\"cf-nel\\\",\\\"max_age\\\":604800}\"\n  ],\n  \"Vary\": [\n    \"Accept-Encoding\"\n  ],\n  \"Server\": [\n    \"cloudflare\"\n  ],\n  \"CF-RAY\": [\n    \"7e605cba28e204cc-HKG\"\n  ],\n  \"Set-Cookie\": [\n  ]\n}\n \n"},{"result":{"nanos":643959,"millis":0.643959,"status":"passed"},"step":{"line":18,"prefix":"And","index":7,"text":"print responseCookies"},"stepLog":"17:05:05.657 [print] {\n}\n \n"}],"executorName":"main","line":10,"name":"Get Demo 1","description":"","durationMillis":762.557626,"startTime":1689239104892,"failed":false,"refId":"[2:10]","endTime":1689239105657,"exampleIndex":-1}],"callDepth":0,"name":"Config Demo","description":"","resultDate":"2023-07-13 05:05:05 pm","durationMillis":765.457252,"passedCount":2}