{"failedCount":1,"prefixedPath":"classpath:tests\/ConfigDemo.feature","packageQualifiedName":"tests.ConfigDemo","loopIndex":-1,"relativePath":"tests\/ConfigDemo.feature","scenarioResults":[{"sectionIndex":0,"stepResults":[{"result":{"nanos":572208,"millis":0.572208,"status":"passed"},"step":{"background":true,"line":3,"prefix":"*","index":0,"text":"url baseURL"},"stepLog":"16:17:39.693 Env is  null \n"},{"result":{"nanos":959792,"millis":0.959792,"status":"passed"},"step":{"background":true,"line":4,"prefix":"*","index":1,"text":"header Accept = 'application\/json'"}},{"result":{"nanos":5344834,"errorMessage":"js failed:\n>>>>\n01: karate.log('[print]',myVarName)\n<<<<\norg.graalvm.polyglot.PolyglotException: ReferenceError: \"myVarName\" is not defined\n- <js>.:program(Unnamed:1)\n\nclasspath:tests\/ConfigDemo.feature:7","millis":5.344834,"status":"failed"},"step":{"line":7,"prefix":"Given","index":0,"text":"print myVarName"},"stepLog":"16:17:39.723 classpath:tests\/ConfigDemo.feature:7\nGiven print myVarName\njs failed:\n>>>>\n01: karate.log('[print]',myVarName)\n<<<<\norg.graalvm.polyglot.PolyglotException: ReferenceError: \"myVarName\" is not defined\n- <js>.:program(Unnamed:1)\n\nclasspath:tests\/ConfigDemo.feature:7\n"}],"line":6,"description":"","durationMillis":6.876834,"failed":true,"error":"js failed:\n>>>>\n01: karate.log('[print]',myVarName)\n<<<<\norg.graalvm.polyglot.PolyglotException: ReferenceError: \"myVarName\" is not defined\n- <js>.:program(Unnamed:1)\n\nclasspath:tests\/ConfigDemo.feature:7","executorName":"main","name":"Config Demo","startTime":1689236259607,"refId":"[1:6]","endTime":1689236259723,"exampleIndex":-1},{"sectionIndex":1,"stepResults":[{"result":{"nanos":149084,"millis":0.149084,"status":"passed"},"step":{"background":true,"line":3,"prefix":"*","index":0,"text":"url baseURL"},"stepLog":"16:17:39.740 Env is  null \n"},{"result":{"nanos":175291,"millis":0.175291,"status":"passed"},"step":{"background":true,"line":4,"prefix":"*","index":1,"text":"header Accept = 'application\/json'"}},{"result":{"nanos":352417,"millis":0.352417,"status":"passed"},"step":{"line":11,"prefix":"Given","index":0,"text":"path '\/users?page=2'"}},{"result":{"nanos":1382651833,"millis":1382.651833,"status":"passed"},"step":{"line":12,"prefix":"When","index":1,"text":"method GET"},"stepLog":"16:17:39.916 request:\n1 > GET https:\/\/reqres.in\/api\/users%3Fpage=2\n1 > Accept: application\/json\n1 > Host: reqres.in\n1 > Connection: Keep-Alive\n1 > User-Agent: Apache-HttpClient\/4.5.14 (Java\/19.0.1)\n1 > Accept-Encoding: gzip,deflate\n\n\n16:17:41.106 response time in milliseconds: 1184\n1 < 200\n1 < Date: Thu, 13 Jul 2023 08:17:40 GMT\n1 < Content-Type: application\/json; charset=utf-8\n1 < Transfer-Encoding: chunked\n1 < Connection: keep-alive\n1 < X-Powered-By: Express\n1 < Access-Control-Allow-Origin: *\n1 < Etag: W\/\"2c1-N6Rqerxquq2kgQhL51EiSg4x0R8\"\n1 < Via: 1.1 vegur\n1 < Cache-Control: max-age=14400\n1 < CF-Cache-Status: REVALIDATED\n1 < Report-To: {\"endpoints\":[{\"url\":\"https:\\\/\\\/a.nel.cloudflare.com\\\/report\\\/v3?s=%2FDfQGCiNCypck8rW96l2Q9RInvK%2FNnef9UOrrvoYr9rDhyMFSr90njEUBhwrL2TWeuEynb0AgoDhcdp%2BCkGQ3AfejogWBLhewYlSvXgj%2Fp69ex3yakTDkETvUQ%3D%3D\"}],\"group\":\"cf-nel\",\"max_age\":604800}\n1 < NEL: {\"success_fraction\":0,\"report_to\":\"cf-nel\",\"max_age\":604800}\n1 < Vary: Accept-Encoding\n1 < Server: cloudflare\n1 < CF-RAY: 7e60174458740791-HKG\n{\"page\":1,\"per_page\":6,\"total\":12,\"total_pages\":2,\"data\":[{\"id\":1,\"name\":\"cerulean\",\"year\":2000,\"color\":\"#98B2D1\",\"pantone_value\":\"15-4020\"},{\"id\":2,\"name\":\"fuchsia rose\",\"year\":2001,\"color\":\"#C74375\",\"pantone_value\":\"17-2031\"},{\"id\":3,\"name\":\"true red\",\"year\":2002,\"color\":\"#BF1932\",\"pantone_value\":\"19-1664\"},{\"id\":4,\"name\":\"aqua sky\",\"year\":2003,\"color\":\"#7BC4C4\",\"pantone_value\":\"14-4811\"},{\"id\":5,\"name\":\"tigerlily\",\"year\":2004,\"color\":\"#E2583E\",\"pantone_value\":\"17-1456\"},{\"id\":6,\"name\":\"blue turquoise\",\"year\":2005,\"color\":\"#53B0AE\",\"pantone_value\":\"15-5217\"}],\"support\":{\"url\":\"https:\/\/reqres.in\/#support-heading\",\"text\":\"To keep ReqRes free, contributions towards server costs are appreciated!\"}}\n\n"},{"result":{"nanos":2107542,"millis":2.107542,"status":"passed"},"step":{"line":13,"prefix":"Then","index":2,"text":"status 200"}},{"result":{"nanos":5908042,"millis":5.908042,"status":"passed"},"step":{"line":14,"prefix":"And","index":3,"text":"print response"},"stepLog":"16:17:41.133 [print] {\n  \"page\": 1,\n  \"per_page\": 6,\n  \"total\": 12,\n  \"total_pages\": 2,\n  \"data\": [\n    {\n      \"id\": 1,\n      \"name\": \"cerulean\",\n      \"year\": 2000,\n      \"color\": \"#98B2D1\",\n      \"pantone_value\": \"15-4020\"\n    },\n    {\n      \"id\": 2,\n      \"name\": \"fuchsia rose\",\n      \"year\": 2001,\n      \"color\": \"#C74375\",\n      \"pantone_value\": \"17-2031\"\n    },\n    {\n      \"id\": 3,\n      \"name\": \"true red\",\n      \"year\": 2002,\n      \"color\": \"#BF1932\",\n      \"pantone_value\": \"19-1664\"\n    },\n    {\n      \"id\": 4,\n      \"name\": \"aqua sky\",\n      \"year\": 2003,\n      \"color\": \"#7BC4C4\",\n      \"pantone_value\": \"14-4811\"\n    },\n    {\n      \"id\": 5,\n      \"name\": \"tigerlily\",\n      \"year\": 2004,\n      \"color\": \"#E2583E\",\n      \"pantone_value\": \"17-1456\"\n    },\n    {\n      \"id\": 6,\n      \"name\": \"blue turquoise\",\n      \"year\": 2005,\n      \"color\": \"#53B0AE\",\n      \"pantone_value\": \"15-5217\"\n    }\n  ],\n  \"support\": {\n    \"url\": \"https:\/\/reqres.in\/#support-heading\",\n    \"text\": \"To keep ReqRes free, contributions towards server costs are appreciated!\"\n  }\n}\n \n"},{"result":{"nanos":827833,"millis":0.827833,"status":"passed"},"step":{"line":15,"prefix":"And","index":4,"text":"print responseStatus"},"stepLog":"16:17:41.134 [print] 200 \n"},{"result":{"nanos":640875,"millis":0.640875,"status":"passed"},"step":{"line":16,"prefix":"And","index":5,"text":"print responseTime"},"stepLog":"16:17:41.134 [print] 1184 \n"},{"result":{"nanos":855208,"millis":0.855208,"status":"passed"},"step":{"line":17,"prefix":"And","index":6,"text":"print responseHeaders"},"stepLog":"16:17:41.135 [print] {\n  \"Date\": [\n    \"Thu, 13 Jul 2023 08:17:40 GMT\"\n  ],\n  \"Content-Type\": [\n    \"application\/json; charset=utf-8\"\n  ],\n  \"Transfer-Encoding\": [\n    \"chunked\"\n  ],\n  \"Connection\": [\n    \"keep-alive\"\n  ],\n  \"X-Powered-By\": [\n    \"Express\"\n  ],\n  \"Access-Control-Allow-Origin\": [\n    \"*\"\n  ],\n  \"Etag\": [\n    \"W\/\\\"2c1-N6Rqerxquq2kgQhL51EiSg4x0R8\\\"\"\n  ],\n  \"Via\": [\n    \"1.1 vegur\"\n  ],\n  \"Cache-Control\": [\n    \"max-age=14400\"\n  ],\n  \"CF-Cache-Status\": [\n    \"REVALIDATED\"\n  ],\n  \"Report-To\": [\n    \"{\\\"endpoints\\\":[{\\\"url\\\":\\\"https:\\\\\/\\\\\/a.nel.cloudflare.com\\\\\/report\\\\\/v3?s=%2FDfQGCiNCypck8rW96l2Q9RInvK%2FNnef9UOrrvoYr9rDhyMFSr90njEUBhwrL2TWeuEynb0AgoDhcdp%2BCkGQ3AfejogWBLhewYlSvXgj%2Fp69ex3yakTDkETvUQ%3D%3D\\\"}],\\\"group\\\":\\\"cf-nel\\\",\\\"max_age\\\":604800}\"\n  ],\n  \"NEL\": [\n    \"{\\\"success_fraction\\\":0,\\\"report_to\\\":\\\"cf-nel\\\",\\\"max_age\\\":604800}\"\n  ],\n  \"Vary\": [\n    \"Accept-Encoding\"\n  ],\n  \"Server\": [\n    \"cloudflare\"\n  ],\n  \"CF-RAY\": [\n    \"7e60174458740791-HKG\"\n  ],\n  \"Set-Cookie\": [\n  ]\n}\n \n"},{"result":{"nanos":612959,"millis":0.612959,"status":"passed"},"step":{"line":18,"prefix":"And","index":7,"text":"print responseCookies"},"stepLog":"16:17:41.136 [print] {\n}\n \n"}],"executorName":"main","line":10,"name":"Get Demo 1","description":"","durationMillis":1394.281084,"startTime":1689236259740,"failed":false,"refId":"[2:10]","endTime":1689236261136,"exampleIndex":-1}],"callDepth":0,"name":"Config Demo","description":"","resultDate":"2023-07-13 04:17:41 pm","durationMillis":1401.157918,"passedCount":1}