{"failedCount":1,"prefixedPath":"src\/test\/java\/tests\/Get.feature","packageQualifiedName":"src.test.java.tests.Get","loopIndex":-1,"relativePath":"src\/test\/java\/tests\/Get.feature","scenarioResults":[{"sectionIndex":3,"stepResults":[{"result":{"nanos":708583,"millis":0.708583,"status":"passed"},"step":{"background":true,"line":4,"prefix":"*","index":0,"text":"url 'https:\/\/reqres.in\/api'"},"stepLog":"12:13:41.028 karate.env system property was: null \n"},{"result":{"nanos":833334,"millis":0.833334,"status":"passed"},"step":{"background":true,"line":5,"prefix":"*","index":1,"text":"header Accept = 'application\/json'"}},{"result":{"nanos":246000,"millis":0.246,"status":"passed"},"step":{"line":43,"prefix":"Given","index":0,"text":"path '\/users'"}},{"result":{"nanos":1436417,"millis":1.436417,"status":"passed"},"step":{"line":44,"prefix":"And","index":1,"text":"param page = 2"}},{"result":{"nanos":557197875,"millis":557.197875,"status":"passed"},"step":{"line":45,"prefix":"When","index":2,"text":"method GET"},"stepLog":"12:13:41.179 request:\n1 > GET https:\/\/reqres.in\/api\/users?page=2\n1 > Accept: application\/json\n1 > Host: reqres.in\n1 > Connection: Keep-Alive\n1 > User-Agent: Apache-HttpClient\/4.5.14 (Java\/19.0.1)\n1 > Accept-Encoding: gzip,deflate\n\n\n12:13:41.592 response time in milliseconds: 409\n1 < 200\n1 < Date: Thu, 13 Jul 2023 04:13:43 GMT\n1 < Content-Type: application\/json; charset=utf-8\n1 < Transfer-Encoding: chunked\n1 < Connection: keep-alive\n1 < X-Powered-By: Express\n1 < Access-Control-Allow-Origin: *\n1 < Etag: W\/\"406-ut0vzoCuidvyMf8arZpMpJ6ZRDw\"\n1 < Via: 1.1 vegur\n1 < Cache-Control: max-age=14400\n1 < CF-Cache-Status: HIT\n1 < Age: 5745\n1 < Report-To: {\"endpoints\":[{\"url\":\"https:\\\/\\\/a.nel.cloudflare.com\\\/report\\\/v3?s=UWUKrO5CBtsscUmXa5lw0CG%2Bc%2BoyqGbpfFhUvo6EDchQRAAV9TanXJKOHfms35nJ3w6r0GoTgwpKQCm%2FJJN%2BA1D9W17BqWky%2FaTmuUnb8U%2B5GWF11doZQ3q9mA%3D%3D\"}],\"group\":\"cf-nel\",\"max_age\":604800}\n1 < NEL: {\"success_fraction\":0,\"report_to\":\"cf-nel\",\"max_age\":604800}\n1 < Vary: Accept-Encoding\n1 < Server: cloudflare\n1 < CF-RAY: 7e5eb1ed69c8105b-HKG\n{\"page\":2,\"per_page\":6,\"total\":12,\"total_pages\":2,\"data\":[{\"id\":7,\"email\":\"michael.lawson@reqres.in\",\"first_name\":\"Michael\",\"last_name\":\"Lawson\",\"avatar\":\"https:\/\/reqres.in\/img\/faces\/7-image.jpg\"},{\"id\":8,\"email\":\"lindsay.ferguson@reqres.in\",\"first_name\":\"Lindsay\",\"last_name\":\"Ferguson\",\"avatar\":\"https:\/\/reqres.in\/img\/faces\/8-image.jpg\"},{\"id\":9,\"email\":\"tobias.funke@reqres.in\",\"first_name\":\"Tobias\",\"last_name\":\"Funke\",\"avatar\":\"https:\/\/reqres.in\/img\/faces\/9-image.jpg\"},{\"id\":10,\"email\":\"byron.fields@reqres.in\",\"first_name\":\"Byron\",\"last_name\":\"Fields\",\"avatar\":\"https:\/\/reqres.in\/img\/faces\/10-image.jpg\"},{\"id\":11,\"email\":\"george.edwards@reqres.in\",\"first_name\":\"George\",\"last_name\":\"Edwards\",\"avatar\":\"https:\/\/reqres.in\/img\/faces\/11-image.jpg\"},{\"id\":12,\"email\":\"rachel.howell@reqres.in\",\"first_name\":\"Rachel\",\"last_name\":\"Howell\",\"avatar\":\"https:\/\/reqres.in\/img\/faces\/12-image.jpg\"}],\"support\":{\"url\":\"https:\/\/reqres.in\/#support-heading\",\"text\":\"To keep ReqRes free, contributions towards server costs are appreciated!\"}}\n\n"},{"result":{"nanos":1732416,"millis":1.732416,"status":"passed"},"step":{"line":46,"prefix":"Then","index":3,"text":"status 200"}},{"result":{"nanos":5971500,"millis":5.9715,"status":"passed"},"step":{"line":47,"prefix":"And","index":4,"text":"print response"},"stepLog":"12:13:41.613 [print] {\n  \"page\": 2,\n  \"per_page\": 6,\n  \"total\": 12,\n  \"total_pages\": 2,\n  \"data\": [\n    {\n      \"id\": 7,\n      \"email\": \"michael.lawson@reqres.in\",\n      \"first_name\": \"Michael\",\n      \"last_name\": \"Lawson\",\n      \"avatar\": \"https:\/\/reqres.in\/img\/faces\/7-image.jpg\"\n    },\n    {\n      \"id\": 8,\n      \"email\": \"lindsay.ferguson@reqres.in\",\n      \"first_name\": \"Lindsay\",\n      \"last_name\": \"Ferguson\",\n      \"avatar\": \"https:\/\/reqres.in\/img\/faces\/8-image.jpg\"\n    },\n    {\n      \"id\": 9,\n      \"email\": \"tobias.funke@reqres.in\",\n      \"first_name\": \"Tobias\",\n      \"last_name\": \"Funke\",\n      \"avatar\": \"https:\/\/reqres.in\/img\/faces\/9-image.jpg\"\n    },\n    {\n      \"id\": 10,\n      \"email\": \"byron.fields@reqres.in\",\n      \"first_name\": \"Byron\",\n      \"last_name\": \"Fields\",\n      \"avatar\": \"https:\/\/reqres.in\/img\/faces\/10-image.jpg\"\n    },\n    {\n      \"id\": 11,\n      \"email\": \"george.edwards@reqres.in\",\n      \"first_name\": \"George\",\n      \"last_name\": \"Edwards\",\n      \"avatar\": \"https:\/\/reqres.in\/img\/faces\/11-image.jpg\"\n    },\n    {\n      \"id\": 12,\n      \"email\": \"rachel.howell@reqres.in\",\n      \"first_name\": \"Rachel\",\n      \"last_name\": \"Howell\",\n      \"avatar\": \"https:\/\/reqres.in\/img\/faces\/12-image.jpg\"\n    }\n  ],\n  \"support\": {\n    \"url\": \"https:\/\/reqres.in\/#support-heading\",\n    \"text\": \"To keep ReqRes free, contributions towards server costs are appreciated!\"\n  }\n}\n \n"},{"result":{"nanos":14596125,"millis":14.596125,"status":"passed"},"step":{"line":48,"prefix":"And","index":5,"text":"match response.data[0].first_name != null"}},{"result":{"nanos":765333,"millis":0.765333,"status":"passed"},"step":{"line":49,"prefix":"And","index":6,"text":"assert response.data.length == 6"}},{"result":{"nanos":4911417,"errorMessage":"js failed:\n>>>>\n01: reponse\n<<<<\norg.graalvm.polyglot.PolyglotException: ReferenceError: \"reponse\" is not defined\n- <js>.:program(Unnamed:1)\n\nsrc\/test\/java\/tests\/Get.feature:50","millis":4.911417,"status":"failed"},"step":{"line":50,"prefix":"And","index":7,"text":"match reponse.data[3].id == 10"},"stepLog":"12:13:41.635 src\/test\/java\/tests\/Get.feature:50\nAnd match reponse.data[3].id == 10\njs failed:\n>>>>\n01: reponse\n<<<<\norg.graalvm.polyglot.PolyglotException: ReferenceError: \"reponse\" is not defined\n- <js>.:program(Unnamed:1)\n\nsrc\/test\/java\/tests\/Get.feature:50\n"}],"line":42,"description":"","durationMillis":588.399,"failed":true,"error":"js failed:\n>>>>\n01: reponse\n<<<<\norg.graalvm.polyglot.PolyglotException: ReferenceError: \"reponse\" is not defined\n- <js>.:program(Unnamed:1)\n\nsrc\/test\/java\/tests\/Get.feature:50","executorName":"main","name":"Get Demo 4","startTime":1689221620944,"refId":"[4:42]","endTime":1689221621635,"exampleIndex":-1}],"callDepth":0,"name":"Get API Demo","description":"","resultDate":"2023-07-13 12:13:41 pm","durationMillis":588.399,"passedCount":0}